{
  "items": [
    {
      "id": "1",
      "checked": false,
      "item": "Almonds, Unsalted, in the blue bag"
    },
    {
      "id": "3",
      "checked": true,
      "item": "Bread"
    },
    {
      "id": "311",
      "checked": false,
      "item": "Pizza 1"
    }
  ]
}